Chapter 4 - Prediction, Goodness-of-Fit, and Modeling Issues
…
library(broom)
augment(fit)

# A tibble: 40 × 8
   food_exp income .fitted .resid   .hat .sigma   .cooksd .std.resid
      <dbl>  <dbl>   <dbl>  <dbl>  <dbl>  <dbl>     <dbl>      <dbl>
 1     115.   3.69    121.  -5.87 0.163    90.7 0.000502     -0.0717
 2     136.   4.39    128.   7.74 0.152    90.7 0.000788      0.0939
 3     119.   4.75    132. -12.6  0.146    90.7 0.00197      -0.152 
 4     115.   6.03    145. -30.0  0.126    90.6 0.00925      -0.359 
 5     187.  12.5     211. -23.7  0.0528   90.6 0.00206      -0.272 
 6     244.  13.0     216.  28.0  0.0490   90.6 0.00265       0.321 
 7     267.  14.2     228.  39.0  0.0410   90.5 0.00424       0.445 
 8     239.  14.8     234.   4.60 0.0378   90.7 0.0000540     0.0524
 9     296.  15.3     240.  56.1  0.0350   90.2 0.00739       0.638 
10     318.  16.4     251.  67.0  0.0307   90.0 0.00914       0.761 
# ℹ 30 more rows
…
